C:\work\digitaltrust
--output-path=obj\Debug\netcoreapp2.0\
--application-name=DTSurvey
--content-root=C:\work\digitaltrust
--file=C:\work\digitaltrust\Pages\Error.cshtml
--file=C:\work\digitaltrust\Pages\Index.cshtml
--file=C:\work\digitaltrust\Pages\Part1Answer.cshtml
--file=C:\work\digitaltrust\Pages\Part2Answer.cshtml
--file=C:\work\digitaltrust\Pages\Part3ThankYou.cshtml
--file=C:\work\digitaltrust\Pages\PTIndex.cshtml
--file=C:\work\digitaltrust\Pages\PTPart1Answer.cshtml
--file=C:\work\digitaltrust\Pages\PTPart2Answer.cshtml
--file=C:\work\digitaltrust\Pages\PTPart3Answer.cshtml
--file=C:\work\digitaltrust\Pages\PTPart4Answer.cshtml
--file=C:\work\digitaltrust\Pages\PTPart5Answer.cshtml
--file=C:\work\digitaltrust\Pages\PTThankYou.cshtml
--file=C:\work\digitaltrust\Pages\Scenario.cshtml
--file=C:\work\digitaltrust\Pages\_Layout.cshtml
--file=C:\work\digitaltrust\Pages\_ValidationScriptsPartial.cshtml
--file=C:\work\digitaltrust\Pages\_ViewImports.cshtml
--file=C:\work\digitaltrust\Pages\_ViewStart.cshtml
